Maschinennummer,Probennummer,Versuchsart,Werkstoff,Prüfkraft N,Kugeldurchmesser mm,Einwirkdauer s,Auftragsnummer
1,VH5260_2.3 OBEN,HBW 2.5/62.5,EN AW-2618A T61,612.916,2.5,14,VH 5260
1,VH5260_1.3 UNTEN,HBW 2.5/62.5,EN AW-2618A T61,612.916,2.5,14,VH 5260
1,VH5260_A15a,HBW 2.5/62.5,EN AW-2618A T61,612.916,2.5,14,VH 5260

