Probennummer,Durchlauf,d1,d2,d,HBW
VH5260_2.3 OBEN,1,0.76398,0.75313,0.75856,135.1
VH5260_2.3 OBEN,2,0.75933,0.75468,0.75701,135.6
VH5260_2.3 OBEN,3,0.75004,0.75004,0.75004,138.2
VH5260_2.3 OBEN,4,0.74074,0.75778,0.74926,138.5
VH5260_1.3 UNTEN,1,0.74849,0.74539,0.74694,139.413861328069
VH5260_1.3 UNTEN,2,0.73764,0.75468,0.74616,139.712465520867
VH5260_1.3 UNTEN,3,0.74539,0.74694,0.746165,139.710548411036
VH5260_1.3 UNTEN,4,0.74074,0.73299,0.736865,143.344075540157
VH5260_1.3 UNTEN,5,0.74694,0.75159,0.749265,138.529312995751
VH5260_A15a,1,0.76398,0.75313,0.758555,135.075666637524
VH5260_A15a,2,0.74694,0.76863,0.757785,135.357105958768
VH5260_A15a,3,0.75933,0.75468,0.757005,135.643075686766
VH5260_A15a,4,0.75004,0.75004,0.75004,138.236288539662
VH5260_A15a,5,0.74074,0.75778,0.74926,138.531206426401

